{
    "en": {
    	"exitMessage": {
    		"message": "Press Back again to exit."
    	},
    	"home":{
    		"title" : "HOME",
    		"history_label": "HISTORY",
    		"news_label": "NEWS",
    		"map_label": "MAP",
    		"route_map_label": "ROUTE MAP",
    		"park_label" : "MORE PARKS"
    	},
    	"history": {
    		"title" : "HISTORY"
    	},
    	"contact": {
    		"title" : "CONTACT",
    		"palmetumGarden" : "PALMETUM GARDEN",
    		"contactHere" : "CONTACT HERE!",
    		"name" : "Name (required)",
    		"email" : "Email (required)",
    		"subject" : "Subject",
    		"message" : "Message",
    		"sendButton" : "Send"
    	},
    	"routeMap": {
    		"title" : "ROUTE MAP",
    		"arriveText": "Welcome to Palmetum",
    		"hybridMode" : "Hybrid",
    		"normalMode" : "Normal",
    		"sateliteMode" : "Satellite",
    		"resetViewPosition" : "Reset View",
    		"errorCurrentPosition" : "Cannot get current position, please make sure GPS is enabled.",
    		"errorNetworkConnection" : "Cannot Connect to the net.",
    		"errorRouteCalculation" : "There is not any available route."
    	},
    	"map": {
    		"title" : "MAP",
    		"interes_point" : "INTEREST POINTS",
			"medical_route" : "MEDICAL ROUTE",
			"gastronomic_route" : "GASTRONOMIC ROUTE"
    	},
    	"socialNetworks": {
    		"title" : "SOCIAL NETWORKS"
    	},
    	"news": {
    		"title" : "NEWS",
    		"newsSection" : "LAST NEWS"
    	},
    	"parqueMaritimo" : {
    		"title" : "PARQUE MARITIMO"
    	}
        
    },
    "es": {
    	"exitMessage": {
    		"message": "Pulse Atras otra vez para salir."
    	},
    	"home":{
    		"title" : "INICIO",
    		"history_label": "HISTORIA",
    		"news_label": "NOTICIAS",
    		"map_label": "MAPA",
    		"route_map_label": "CÓMO LLEGAR",
    		"park_label" : "MAS PARQUES"
    	},
    	"history": {
    		"title" : "HISTORIA"
    	},
    	"contact": {
    		"title" : "CONTACTO",
    		"palmetumGarden" : "JARDIN DE PALMETUM", 
    		"contactHere" : "¡CONTACTA AQUI!",
    		"name" : "Nombre (requerido)",
    		"email" : "Email (requerido)",
    		"subject" : "Asunto",
    		"message" : "Mensaje",
    		"sendButton" : "Enviar"    		
    	},
    	"routeMap": {
    		"title" : "COMO LLEGAR",
    		"arriveText": "Bienvenido a Palmetum",
    		"hybridMode" : "Hibrido",
    		"normalMode" : "Normal",
    		"sateliteMode" : "Satelite",
    		"resetViewPosition" : "Resetear Vista",
    		"errorCurrentPosition" : "No se ha podido obtener la posicion actual, por favor asegurese de tener el GPS activado.",
    		"errorNetworkConnection" : "No existe conexion a internet.",
    		"errorRouteCalculation" : "No hay rutas disponibles."
    	},
    	"map": {
    		"title" : "MAPA",
    		"interes_point" : "PUNTOS INTERES",
			"medical_route" : "RUTA MEDICINAL",
			"gastronomic_route" : "RUTA GASTRONOMICA"
    	},
    	"socialNetworks": {
    		"title" : "REDES SOCIALES"
    	},
    	"news": {
    		"title" : "NOTICIAS",
    		"newsSection" : "ULTIMAS NOTICIAS"
    	},
    	"parqueMaritimo" : {
    		"title" : "PARQUE MARITIMO"
    	}
    },
    "de": {
        "exitMessage": {
            "message": "Drücken Sie einfach den zurück button zuverlassen."
        },
        "home":{
            "title" : "STARTMENÜ",
            "history_label": "GESCHICHTE",
            "news_label": "NACHRICHTEN",
            "map_label": "PLAN",
            "route_map_label": "ANFAHRT",
            "park_label" : "MEHR PARKS"
        },
        "history": {
            "title" : "GESCHICHTE"
        },
        "contact": {
            "title" : "KONTAKT",
            "palmetumGarden" : "PALMETUM GARTEN", 
            "contactHere" : "KONTAKT",
            "name" : "Name (erforderlich)",
            "email" : "E-Mail (erforderlich)",
            "subject" : "Betreff",
            "message" : "Nachricht",
            "sendButton" : "Weiter"         
        },
        "routeMap": {
            "title" : "ANFAHRT",
            "arriveText": "Willkommen in Palmetum",
            "hybridMode" : "Hybride",
            "normalMode" : "Normale",
            "sateliteMode" : "Satellitenbilder",
            "resetViewPosition" : "Ansicht zurücksetzen. ",
            "errorCurrentPosition" : "Wir konnten die aktuelle Position nicht finden, versuchen Sie es später noch einmal.",
            "errorNetworkConnection" : "Keine Internetverbindung vorhanden.",
            "errorRouteCalculation" : "Keire Route verfügbar."
        },
        "map": {
            "title" : "PLAN",
            "interes_point" : "INTERESSENPUNKTE",
            "medical_route" : "HEIL ROUTE",
            "gastronomic_route" : "GASTRONOMISCHE ROUTE"
        },
        "socialNetworks": {
            "title" : "SOCIAL MEDIA"
        },
        "news": {
            "title" : "NACHRICHTEN",
            "newsSection" : "NACHRICHTEN"
        },
        "parqueMaritimo" : {
            "title" : "MARITIME PARK"
        }
    },
    "fr": {
        "exitMessage": {
            "message": "Appuyez à nouveau pour quitter."
        },
        "home":{
            "title" : "DÉMARRER",
            "history_label": "HISTOIRE",
            "news_label": "NOUVELLES",
            "map_label": "CARTE",
            "route_map_label": "COMMENT ARRIVER",
            "park_label" : "PLUS DE PARCS"
        },
        "history": {
            "title" : "HISTOIRE"
        },
        "contact": {
            "title" : "CONTACT",
            "palmetumGarden" : "PALMETUM JARDIN", 
            "contactHere" : "CONTACTER ICI!",
            "name" : "Nom (obligatoire)",
            "email" : "E-MAIL (obligatoire)",
            "subject" : "Object",
            "message" : "Message",
            "sendButton" : "Envoyer"         
        },
        "routeMap": {
            "title" : "COMMENT ARRIVER",
            "arriveText": "Bienvenue à Palemtum",
            "hybridMode" : "Hybride",
            "normalMode" : "Normal",
            "sateliteMode" : "Satellite",
            "resetViewPosition" : "Réinitialiser vue",
            "errorCurrentPosition" : "Impossible d'obtenir la position actuelle , s'il vous plaît réessayer plus tard.",
            "errorNetworkConnection" : "Pas d'internet.",
            "errorRouteCalculation" : "Itinéraire non disponible."
        },
        "map": {
            "title" : "CARTE",
            "interes_point" : "LES POINTS D'INTÉRÊT",
            "medical_route" : "ITINÉRAIRE MÉDICINALE",
            "gastronomic_route" : "RUTE GASTRONOMIQUE"
        },
        "socialNetworks": {
            "title" : "MÉDIA SOCIAL"
        },
        "news": {
            "title" : "NOUVELLES",
            "newsSection" : "DERNIÈRES NOUVELLES"
        },
        "parqueMaritimo" : {
            "title" : "PARC MARITIME"
        }
    },
    "it": {
        "exitMessage": {
            "message": "Premere di nuovo per uscire."
        },
        "home":{
            "title" : "INIZIAZIONE",
            "history_label": "STORIA",
            "news_label": "NOTIZIE",
            "map_label": "MAPPA",
            "route_map_label": "COME ARRIVARE",
            "park_label" : "PIU PARCHI"
        },
        "history": {
            "title" : "STORIA"
        },
        "contact": {
            "title" : "CONTATTO",
            "palmetumGarden" : "JARDIN DE PALMETUM", 
            "contactHere" : "¡CONTACTA AQUI!",
            "name" : "Nome (obbligatorio)",
            "email" : "Email (obbligatorio)",
            "subject" : "Soggetto",
            "message" : "Mesaggio",
            "sendButton" : "Inviare"         
        },
        "routeMap": {
            "title" : "COME ARRIVARE",
            "arriveText": "Benvenuti a Palmetum",
            "hybridMode" : "Ibrido",
            "normalMode" : "Normale",
            "sateliteMode" : "Satellitare",
            "resetViewPosition" : "Ripristinare Vista",
            "errorCurrentPosition" : "Non siamo riusciti a trovare la posizione attuale, si prega di riprovare più tardi.",
            "errorNetworkConnection" : "Nessuna connessione Internet disponibile.",
            "errorRouteCalculation" : "Nessun percorsi disponibili."
        },
        "map": {
            "title" : "MAPPA",
            "interes_point" : "PUNTI INTERESSE",
            "medical_route" : "PERCOSO MEDICINALI",
            "gastronomic_route" : "PERCOSO GASTRONOMICO"
        },
        "socialNetworks": {
            "title" : "SOCIAL MEDIA"
        },
        "news": {
            "title" : "NOTIZIE",
            "newsSection" : "NOTIZIE FRESCHE"
        },
        "parqueMaritimo" : {
            "title" : "PARCO MARITIMO"
        }
    },
    "pt": {
        "exitMessage": {
            "message": "Pressione novamente para voltar."
        },
        "home":{
            "title" : "INNICIAÇÃO",
            "history_label": "HISTÓRIA",
            "news_label": "NOTÍCIA",
            "map_label": "MAPA",
            "route_map_label": "CÓMO CHEGAR",
            "park_label" : "MAIS PARQUES"
        },
        "history": {
            "title" : "HISTÓRIA"
        },
        "contact": {
            "title" : "CONTATO",
            "palmetumGarden" : "JARDIM DO PALMETUM", 
            "contactHere" : "¡CONTACTE AQUI!",
            "name" : "Nome (obrigatório)",
            "email" : "E-mail (obrigatório)",
            "subject" : "AsSunto",
            "message" : "Mensagem",
            "sendButton" : "Enviar"         
        },
        "routeMap": {
            "title" : "COMO CHEGAR",
            "arriveText": "Bem-vindo ao Palmetum",
            "hybridMode" : "Híbrido",
            "normalMode" : "Normal",
            "sateliteMode" : "Satélite",
            "resetViewPosition" : "Redefinir Vista",
            "errorCurrentPosition" : "Não foi possível obter a posição atual, por favor, tente novamente mais tarde.",
            "errorNetworkConnection" : "Não há conexão com a internet.",
            "errorRouteCalculation" : "Não há rotas."
        },
        "map": {
            "title" : "MAPA",
            "interes_point" : "VISTAS",
            "medical_route" : "ROTA MEDICINAL",
            "gastronomic_route" : "ROTA GASTRONÔMICA"
        },
        "socialNetworks": {
            "title" : "REDES SOCIAIS"
        },
        "news": {
            "title" : "NOTÍCIAS",
            "newsSection" : "ÚLTIMAS NOTÍCIAS"
        },
        "parqueMaritimo" : {
            "title" : "MARITIME PARK"
        }
    },
    "ru": {
        "exitMessage": {
            "message": "нажмите снова, чтобы выйти."
        },
        "home":{
            "title" : "Начало",
            "history_label": "история",
            "news_label": "Новости",
            "map_label": "карта",
            "route_map_label": "Горячая попасть",
            "park_label" : "больше парков"
        },
        "history": {
            "title" : "история"
        },
        "contact": {
            "title" : "контакт",
            "palmetumGarden" : "Пальмовая роща сад", 
            "contactHere" : "связаться здесь",
            "name" : "имя (обязательно)",
            "email" : "E-mail (обязательно)",
            "subject" : "предмет",
            "message" : "сообщение",
            "sendButton" : "Отправить"         
        },
        "routeMap": {
            "title" : "Горячая попасть",
            "arriveText": "Добро пожаловать в Пальмовая роща",
            "hybridMode" : "гибридный",
            "normalMode" : "нормальный",
            "sateliteMode" : "спутник",
            "resetViewPosition" : "сбросить вид",
            "errorCurrentPosition" : "Мы не смогли найти фактическое положение, повторите попытку позже.",
            "errorNetworkConnection" : "нет подключения к Интернету.",
            "errorRouteCalculation" : "нет маршрутов."
        },
        "map": {
            "title" : "карта",
            "interes_point" : "Процентные точки",
            "medical_route" : "лекарственное маршрут",
            "gastronomic_route" : "гастрономическое маршрут"
        },
        "socialNetworks": {
            "title" : "социальные медиа"
        },
        "news": {
            "title" : "Новости",
            "newsSection" : "последние новости"
        },
        "parqueMaritimo" : {
            "title" : "Морской парк"
        }
    }
}